	{
	  "Description" : "FirstAnimation", 
      "sType" : "Animated",
	  "SpriteMaps" : 
	  [
		{
            "SpriteMapName" : "Sprites/tile",
            "Columns" : 1, 
            "Rows" : 1
		}
	  ],
	  "AnimationSequences" : 
	  [
		{	
			"AnimationName" : "idle",
			"AnimationTime" : 1,
			"AnimationLoop" : 0,
			"AnimationFrames" : 
			[
				{	
					"weight" : 1,				
					"map" : 0,
					"row" : 0,
					"column" : 0
				}
			]
		}
	  ]
	}